[
  {
    "type": "tab",
    "id": "f783e181.42f6a",
    "label": "Flow 1"
  },
  {
    "id": "55976aee.a1cd44",
    "type": "http in",
    "z": "f783e181.42f6a",
    "name": "",
    "url": "/",
    "method": "get",
    "swaggerDoc": "",
    "x": 230,
    "y": 180,
    "wires": [
      [
        "3baa2e1a.8ebfd2"
      ]
    ]
  },
  {
    "id": "3baa2e1a.8ebfd2",
    "type": "template",
    "z": "f783e181.42f6a",
    "name": "",
    "field": "payload",
    "fieldType": "msg",
    "format": "handlebars",
    "syntax": "mustache",
    "template": "This is root / of azad.",
    "x": 470,
    "y": 180,
    "wires": [
      [
        "185f4473.18076c"
      ]
    ]
  },
  {
    "id": "185f4473.18076c",
    "type": "http response",
    "z": "f783e181.42f6a",
    "name": "",
    "x": 650,
    "y": 180,
    "wires": []
  },
  {
    "id": "35789ab3.994126",
    "type": "http in",
    "z": "f783e181.42f6a",
    "name": "",
    "url": "/about",
    "method": "get",
    "swaggerDoc": "",
    "x": 250,
    "y": 240,
    "wires": [
      [
        "93c8c320.d225e"
      ]
    ]
  },
  {
    "id": "93c8c320.d225e",
    "type": "template",
    "z": "f783e181.42f6a",
    "name": "",
    "field": "payload",
    "fieldType": "msg",
    "format": "handlebars",
    "syntax": "mustache",
    "template": "This is about of azad.",
    "x": 470,
    "y": 240,
    "wires": [
      [
        "dd5cbd07.d6224",
        "9ebbc8c6.1e2d08"
      ]
    ]
  },
  {
    "id": "dd5cbd07.d6224",
    "type": "http response",
    "z": "f783e181.42f6a",
    "name": "",
    "x": 650,
    "y": 240,
    "wires": []
  },
  {
    "id": "9ebbc8c6.1e2d08",
    "type": "redconnect-send-onscreen",
    "z": "f783e181.42f6a",
    "clientId": "1",
    "url": "https://azad.redconnectapp.io/",
    "sendTo": "group",
    "x": 680,
    "y": 300,
    "wires": []
  }
]